# Blender v2.80 (sub 74) OBJ File: 'IMM_Hopper.blend'
# www.blender.org
mtllib IMM_Hopper.mtl
o Cylinder
v 0.000000 0.317500 -0.368300
v 0.071852 0.317500 -0.361223
v 0.140942 0.317500 -0.340265
v 0.204617 0.317500 -0.306230
v 0.260427 0.317500 -0.260427
v 0.306230 0.317500 -0.204616
v 0.340265 0.317500 -0.140942
v 0.361223 0.317500 -0.071852
v 0.368300 0.317500 -0.000000
v 0.361223 0.317500 0.071852
v 0.340265 0.317500 0.140942
v 0.306230 0.317500 0.204616
v 0.260427 0.317500 0.260427
v 0.204616 0.317500 0.306230
v 0.140942 0.317500 0.340265
v 0.071852 0.317500 0.361223
v -0.000000 0.317500 0.368300
v -0.071852 0.317500 0.361223
v -0.140942 0.317500 0.340265
v -0.204617 0.317500 0.306230
v -0.260428 0.317500 0.260427
v -0.306230 0.317500 0.204616
v -0.340265 0.317500 0.140942
v -0.361223 0.317500 0.071851
v -0.368300 0.317500 -0.000000
v -0.361223 0.317500 -0.071852
v -0.340265 0.317500 -0.140943
v -0.306230 0.317500 -0.204617
v -0.260427 0.317500 -0.260428
v -0.204616 0.317500 -0.306231
v -0.140942 0.317500 -0.340265
v -0.071851 0.317500 -0.361223
v 0.000000 -0.317500 -0.044623
v 0.000000 0.185670 -0.368300
v 0.008706 -0.317500 -0.043766
v 0.071852 0.185670 -0.361223
v 0.017077 -0.317500 -0.041226
v 0.140942 0.185670 -0.340265
v 0.024791 -0.317500 -0.037103
v 0.204617 0.185670 -0.306230
v 0.031553 -0.317500 -0.031553
v 0.260427 0.185670 -0.260427
v 0.037103 -0.317500 -0.024791
v 0.306230 0.185670 -0.204616
v 0.041226 -0.317500 -0.017077
v 0.340265 0.185670 -0.140942
v 0.043766 -0.317500 -0.008706
v 0.361223 0.185670 -0.071852
v 0.044623 -0.317500 -0.000000
v 0.368300 0.185670 -0.000000
v 0.043766 -0.317500 0.008705
v 0.361223 0.185670 0.071852
v 0.041226 -0.317500 0.017077
v 0.340265 0.185670 0.140942
v 0.037103 -0.317500 0.024791
v 0.306230 0.185670 0.204616
v 0.031553 -0.317500 0.031553
v 0.260427 0.185670 0.260427
v 0.024791 -0.317500 0.037103
v 0.204616 0.185670 0.306230
v 0.017077 -0.317500 0.041226
v 0.140942 0.185670 0.340265
v 0.008706 -0.317500 0.043766
v 0.071852 0.185670 0.361223
v 0.000000 -0.317500 0.044623
v -0.000000 0.185670 0.368300
v -0.008706 -0.317500 0.043766
v -0.071852 0.185670 0.361223
v -0.017077 -0.317500 0.041226
v -0.140942 0.185670 0.340265
v -0.024791 -0.317500 0.037103
v -0.204617 0.185670 0.306230
v -0.031553 -0.317500 0.031553
v -0.260428 0.185670 0.260427
v -0.037103 -0.317500 0.024791
v -0.306230 0.185670 0.204616
v -0.041226 -0.317500 0.017077
v -0.340265 0.185670 0.140942
v -0.043766 -0.317500 0.008705
v -0.361223 0.185670 0.071851
v -0.044623 -0.317500 -0.000000
v -0.368300 0.185670 -0.000000
v -0.043766 -0.317500 -0.008706
v -0.361223 0.185670 -0.071852
v -0.041226 -0.317500 -0.017077
v -0.340265 0.185670 -0.140943
v -0.037103 -0.317500 -0.024791
v -0.306230 0.185670 -0.204617
v -0.031553 -0.317500 -0.031553
v -0.260427 0.185670 -0.260428
v -0.024791 -0.317500 -0.037103
v -0.204616 0.185670 -0.306231
v -0.017076 -0.317500 -0.041227
v -0.140942 0.185670 -0.340265
v -0.008705 -0.317500 -0.043766
v -0.071851 0.185670 -0.361223
v 0.324315 0.127170 0.064510
v 0.075357 -0.267428 0.014989
v 0.327274 0.131861 -0.065099
v 0.075239 -0.267615 -0.014966
v 0.075594 -0.269355 -0.000000
v 0.340066 0.141779 -0.000000
v 0.075082 -0.269358 -0.005177
v 0.074816 -0.268988 -0.010292
v 0.331668 0.138122 -0.061383
v 0.333000 0.139706 -0.058202
v 0.334140 0.140822 -0.053915
v 0.336138 0.142231 0.042831
v 0.333343 0.139154 0.051113
v 0.075006 -0.268586 0.010994
v 0.075190 -0.269160 0.005372
v 0.334554 0.140670 0.048719
vt 0.031250 0.896197
vt 0.031250 1.000000
vt 0.000000 1.000000
vt 0.000000 0.896197
vt 0.937500 0.896197
vt 0.937500 1.000000
vt 0.906250 1.000000
vt 0.906250 0.896197
vt 0.906250 0.896197
vt 0.875000 1.000000
vt 0.875000 0.896197
vt 0.843750 1.000000
vt 0.843750 0.896197
vt 0.812500 1.000000
vt 0.812500 0.896197
vt 0.781250 1.000000
vt 0.781250 0.896197
vt 0.750000 1.000000
vt 0.750000 0.896197
vt 0.718750 1.000000
vt 0.718750 0.896197
vt 0.687500 1.000000
vt 0.687500 0.896197
vt 0.656250 1.000000
vt 0.656250 0.896197
vt 0.625000 1.000000
vt 0.625000 0.896197
vt 0.593750 1.000000
vt 0.593750 0.896197
vt 0.562500 1.000000
vt 0.562500 0.896197
vt 0.531250 1.000000
vt 0.531250 0.896197
vt 0.500000 1.000000
vt 0.500000 0.896197
vt 0.468750 1.000000
vt 0.468750 0.896197
vt 0.437500 1.000000
vt 0.437500 0.896197
vt 0.406250 1.000000
vt 0.406250 0.896197
vt 0.375000 1.000000
vt 0.375000 0.896197
vt 0.343750 1.000000
vt 0.343750 0.896197
vt 0.312500 1.000000
vt 0.312500 0.896197
vt 0.281250 1.000000
vt 0.281250 0.896197
vt 0.250000 1.000000
vt 0.250000 0.896197
vt 0.218750 1.000000
vt 0.218750 0.896197
vt 0.187500 1.000000
vt 0.187500 0.896197
vt 0.156250 1.000000
vt 0.156250 0.896197
vt 0.125000 1.000000
vt 0.125000 0.896197
vt 0.093750 1.000000
vt 0.093750 0.896197
vt 0.062500 1.000000
vt 0.062500 0.896197
vt 0.968750 0.896197
vt 0.968750 1.000000
vt 1.000000 0.896197
vt 1.000000 1.000000
vt 0.977282 0.500000
vt 0.991468 0.500000
vt 0.946032 0.500000
vt 0.960218 0.500000
vt 0.914782 0.500000
vt 0.928968 0.500000
vt 0.883532 0.500000
vt 0.897718 0.500000
vt 0.852282 0.500000
vt 0.866468 0.500000
vt 0.821032 0.500000
vt 0.835218 0.500000
vt 0.782162 0.853828
vt 0.788936 0.539280
vt 0.789782 0.500000
vt 0.803968 0.500000
vt 0.696032 0.500000
vt 0.710218 0.500000
vt 0.711067 0.539427
vt 0.717758 0.850134
vt 0.664782 0.500000
vt 0.678968 0.500000
vt 0.633532 0.500000
vt 0.647718 0.500000
vt 0.602282 0.500000
vt 0.616468 0.500000
vt 0.571032 0.500000
vt 0.585218 0.500000
vt 0.539782 0.500000
vt 0.553968 0.500000
vt 0.508532 0.500000
vt 0.522718 0.500000
vt 0.477282 0.500000
vt 0.491468 0.500000
vt 0.446032 0.500000
vt 0.460218 0.500000
vt 0.414782 0.500000
vt 0.428968 0.500000
vt 0.383532 0.500000
vt 0.397718 0.500000
vt 0.352282 0.500000
vt 0.366468 0.500000
vt 0.321032 0.500000
vt 0.335218 0.500000
vt 0.289782 0.500000
vt 0.303968 0.500000
vt 0.258532 0.500000
vt 0.272718 0.500000
vt 0.227282 0.500000
vt 0.241468 0.500000
vt 0.196032 0.500000
vt 0.210218 0.500000
vt 0.164782 0.500000
vt 0.178968 0.500000
vt 0.133532 0.500000
vt 0.147718 0.500000
vt 0.102282 0.500000
vt 0.116468 0.500000
vt 0.071032 0.500000
vt 0.085218 0.500000
vt 0.039782 0.500000
vt 0.053968 0.500000
vt 0.008532 0.500000
vt 0.022718 0.500000
vt 0.750744 0.861637
vt 0.774918 0.860883
vt 0.776891 0.860005
vt 0.778392 0.858757
vt 0.780338 0.853828
vt 0.773564 0.539280
vt 0.768737 0.538199
vt 0.763257 0.537906
vt 0.757716 0.537910
vt 0.758532 0.500000
vt 0.772718 0.500000
vt 0.742284 0.537910
vt 0.736544 0.538063
vt 0.730546 0.538515
vt 0.726433 0.539427
vt 0.727282 0.500000
vt 0.741468 0.500000
vt 0.719742 0.850134
vt 0.726281 0.859570
vt 0.727406 0.860764
vt 0.730088 0.861993
vt 0.749256 0.861637
vn -0.0980 0.0000 -0.9952
vn 0.4714 0.0000 -0.8819
vn 0.6344 0.0000 -0.7730
vn 0.7730 0.0000 -0.6344
vn 0.8819 0.0000 -0.4714
vn 0.9569 0.0000 -0.2903
vn 0.9952 0.0000 -0.0980
vn 0.9952 0.0000 0.0980
vn 0.9569 0.0000 0.2903
vn 0.8819 0.0000 0.4714
vn 0.7730 0.0000 0.6344
vn 0.6344 0.0000 0.7730
vn 0.4714 0.0000 0.8819
vn 0.2903 0.0000 0.9569
vn 0.0980 0.0000 0.9952
vn -0.0980 0.0000 0.9952
vn -0.2903 0.0000 0.9569
vn -0.4714 0.0000 0.8819
vn -0.6344 0.0000 0.7730
vn -0.7730 0.0000 0.6344
vn -0.8819 0.0000 0.4714
vn -0.9569 0.0000 0.2903
vn -0.9952 0.0000 0.0980
vn -0.9952 0.0000 -0.0980
vn -0.9569 0.0000 -0.2903
vn -0.8819 0.0000 -0.4714
vn -0.7730 0.0000 -0.6344
vn -0.6344 0.0000 -0.7730
vn -0.4714 0.0000 -0.8819
vn -0.2903 0.0000 -0.9569
vn 0.2903 0.0000 -0.9569
vn 0.0980 0.0000 -0.9952
vn 0.0826 -0.5392 -0.8381
vn 0.2445 -0.5392 -0.8059
vn 0.3970 -0.5392 -0.7428
vn 0.5343 -0.5392 -0.6510
vn 0.6510 -0.5392 -0.5343
vn 0.7428 -0.5392 -0.3970
vn 0.8059 -0.5392 -0.2445
vn 0.8059 -0.5392 0.2445
vn 0.7428 -0.5392 0.3970
vn 0.6510 -0.5392 0.5343
vn 0.5343 -0.5392 0.6510
vn 0.3970 -0.5392 0.7428
vn 0.2445 -0.5392 0.8059
vn 0.0826 -0.5392 0.8381
vn -0.0826 -0.5392 0.8381
vn -0.2445 -0.5392 0.8059
vn -0.3970 -0.5392 0.7428
vn -0.5343 -0.5392 0.6510
vn -0.6510 -0.5392 0.5343
vn -0.7428 -0.5392 0.3970
vn -0.8059 -0.5392 0.2445
vn -0.8381 -0.5392 0.0825
vn -0.8381 -0.5392 -0.0826
vn -0.8059 -0.5392 -0.2445
vn -0.7428 -0.5392 -0.3970
vn -0.6510 -0.5392 -0.5343
vn -0.5343 -0.5392 -0.6510
vn -0.3970 -0.5392 -0.7428
vn -0.2445 -0.5392 -0.8059
vn -0.0825 -0.5392 -0.8381
vn 0.8381 -0.5392 -0.0826
vn 0.8381 -0.5392 0.0826
usemtl Outside_Hopper
s off
f 96/1/1 32/2/1 1/3/1 34/4/1
f 38/5/2 3/6/2 4/7/2 40/8/2
f 40/9/3 4/7/3 5/10/3 42/11/3
f 42/11/4 5/10/4 6/12/4 44/13/4
f 44/13/5 6/12/5 7/14/5 46/15/5
f 46/15/6 7/14/6 8/16/6 48/17/6
f 48/17/7 8/16/7 9/18/7 50/19/7
f 50/19/8 9/18/8 10/20/8 52/21/8
f 52/21/9 10/20/9 11/22/9 54/23/9
f 54/23/10 11/22/10 12/24/10 56/25/10
f 56/25/11 12/24/11 13/26/11 58/27/11
f 58/27/12 13/26/12 14/28/12 60/29/12
f 60/29/13 14/28/13 15/30/13 62/31/13
f 62/31/14 15/30/14 16/32/14 64/33/14
f 64/33/15 16/32/15 17/34/15 66/35/15
f 66/35/16 17/34/16 18/36/16 68/37/16
f 68/37/17 18/36/17 19/38/17 70/39/17
f 70/39/18 19/38/18 20/40/18 72/41/18
f 72/41/19 20/40/19 21/42/19 74/43/19
f 74/43/20 21/42/20 22/44/20 76/45/20
f 76/45/21 22/44/21 23/46/21 78/47/21
f 78/47/22 23/46/22 24/48/22 80/49/22
f 80/49/23 24/48/23 25/50/23 82/51/23
f 82/51/24 25/50/24 26/52/24 84/53/24
f 84/53/25 26/52/25 27/54/25 86/55/25
f 86/55/26 27/54/26 28/56/26 88/57/26
f 88/57/27 28/56/27 29/58/27 90/59/27
f 90/59/28 29/58/28 30/60/28 92/61/28
f 92/61/29 30/60/29 31/62/29 94/63/29
f 94/63/30 31/62/30 32/2/30 96/1/30
f 36/64/31 2/65/31 3/6/31 38/5/31
f 34/66/32 1/67/32 2/65/32 36/64/32
f 34/66/33 36/64/33 35/68/33 33/69/33
f 36/64/34 38/5/34 37/70/34 35/71/34
f 38/5/35 40/8/35 39/72/35 37/73/35
f 40/9/36 42/11/36 41/74/36 39/75/36
f 42/11/37 44/13/37 43/76/37 41/77/37
f 44/13/38 46/15/38 45/78/38 43/79/38
f 46/15/39 48/17/39 99/80/39 100/81/39 47/82/39 45/83/39
f 52/21/40 54/23/40 53/84/40 51/85/40 98/86/40 97/87/40
f 54/23/41 56/25/41 55/88/41 53/89/41
f 56/25/42 58/27/42 57/90/42 55/91/42
f 58/27/43 60/29/43 59/92/43 57/93/43
f 60/29/44 62/31/44 61/94/44 59/95/44
f 62/31/45 64/33/45 63/96/45 61/97/45
f 64/33/46 66/35/46 65/98/46 63/99/46
f 66/35/47 68/37/47 67/100/47 65/101/47
f 68/37/48 70/39/48 69/102/48 67/103/48
f 70/39/49 72/41/49 71/104/49 69/105/49
f 72/41/50 74/43/50 73/106/50 71/107/50
f 74/43/51 76/45/51 75/108/51 73/109/51
f 76/45/52 78/47/52 77/110/52 75/111/52
f 78/47/53 80/49/53 79/112/53 77/113/53
f 80/49/54 82/51/54 81/114/54 79/115/54
f 82/51/55 84/53/55 83/116/55 81/117/55
f 84/53/56 86/55/56 85/118/56 83/119/56
f 86/55/57 88/57/57 87/120/57 85/121/57
f 88/57/58 90/59/58 89/122/58 87/123/58
f 90/59/59 92/61/59 91/124/59 89/125/59
f 92/61/60 94/63/60 93/126/60 91/127/60
f 94/63/61 96/1/61 95/128/61 93/129/61
f 96/1/62 34/4/62 33/130/62 95/131/62
f 48/17/63 50/19/63 102/132/63 107/133/63 106/134/63 105/135/63 99/136/63
f 100/137/63 104/138/63 103/139/63 101/140/63 49/141/63 47/142/63
f 101/143/64 111/144/64 110/145/64 98/146/64 51/147/64 49/148/64
f 50/19/64 52/21/64 97/149/64 109/150/64 112/151/64 108/152/64 102/153/64
