# Blender MTL File: 'Molds_And_Plates.blend'
# Material Count: 4

newmtl Black
Ns 225.000000
Ka 1.000000 1.000000 1.000000
Kd 0.000000 0.000000 0.000000
Ks 0.500000 0.500000 0.500000
Ke 0.0 0.0 0.0
Ni 1.450000
d 1.000000
illum 2

newmtl Cynlinders
Ns 225.000000
Ka 1.000000 1.000000 1.000000
Kd 0.577581 0.584079 0.590619
Ks 0.500000 0.500000 0.500000
Ke 0.0 0.0 0.0
Ni 1.450000
d 1.000000
illum 2

newmtl Mold_Color
Ns 225.000000
Ka 1.000000 1.000000 1.000000
Kd 0.246201 0.246201 0.246201
Ks 0.500000 0.500000 0.500000
Ke 0.0 0.0 0.0
Ni 1.450000
d 1.000000
illum 2

newmtl Outside_shell
Ns 225.000000
Ka 1.000000 1.000000 1.000000
Kd 0.545725 0.545725 0.558341
Ks 0.500000 0.500000 0.500000
Ke 0.0 0.0 0.0
Ni 1.450000
d 1.000000
illum 2
